// Jest Snapshot v1, https://goo.gl/fbAQLP

exports[`processInput  reject random placement of dot, comma, and invalid characters (00.000323) reject invalid input 1`] = `"Wrong usage of dot, use only for separator (eg. Rp100.000), do not use as anything else such as Rp.1.000 or Rp100.00"`;

exports[`processInput  reject random placement of dot, comma, and invalid characters (00a003232) reject invalid input 1`] = `"There are invalid character in your input, only valid non-decimal number and rupiah currency format are allowed (eg. Rp1000, Rp1.000, Rp1.000,00 1.000, 1000, ect... )"`;

exports[`processInput  reject random placement of dot, comma, and invalid characters (1_000) reject invalid input 1`] = `"There are invalid character in your input, only valid non-decimal number and rupiah currency format are allowed (eg. Rp1000, Rp1.000, Rp1.000,00 1.000, 1000, ect... )"`;

exports[`processInput  reject random placement of dot, comma, and invalid characters (100a00) reject invalid input 1`] = `"There are invalid character in your input, only valid non-decimal number and rupiah currency format are allowed (eg. Rp1000, Rp1.000, Rp1.000,00 1.000, 1000, ect... )"`;

exports[`processInput  reject random placement of dot, comma, and invalid characters (123.3123.329) reject invalid input 1`] = `"Wrong usage of dot, use only for separator (eg. Rp100.000), do not use as anything else such as Rp.1.000 or Rp100.00"`;

exports[`processInput  reject random placement of dot, comma, and invalid characters (230.00) reject invalid input 1`] = `"Wrong usage of dot, use only for separator (eg. Rp100.000), do not use as anything else such as Rp.1.000 or Rp100.00"`;

exports[`processInput  reject random placement of dot, comma, and invalid characters (324.g32) reject invalid input 1`] = `"There are invalid character in your input, only valid non-decimal number and rupiah currency format are allowed (eg. Rp1000, Rp1.000, Rp1.000,00 1.000, 1000, ect... )"`;

exports[`processInput  reject random placement of dot, comma, and invalid characters (2134.323.323) reject invalid input 1`] = `"Wrong usage of dot, use only for separator (eg. Rp100.000), do not use as anything else such as Rp.1.000 or Rp100.00"`;

exports[`processInput  reject random placement of dot, comma, and invalid characters (324432gg) reject invalid input 1`] = `"There are invalid character in your input, only valid non-decimal number and rupiah currency format are allowed (eg. Rp1000, Rp1.000, Rp1.000,00 1.000, 1000, ect... )"`;

exports[`processInput  reject random placement of dot, comma, and invalid characters (Rp.asdfa) reject invalid input 1`] = `"Wrong usage of dot, use only for separator (eg. Rp100.000), do not use as anything else such as Rp.1.000 or Rp100.00"`;

exports[`processInput  reject random placement of dot, comma, and invalid characters (Rp00.0323) reject invalid input 1`] = `"Wrong usage of dot, use only for separator (eg. Rp100.000), do not use as anything else such as Rp.1.000 or Rp100.00"`;

exports[`processInput  reject random placement of dot, comma, and invalid characters (Rp000323) reject invalid input 1`] = `"There are invalid character in your input, only valid non-decimal number and rupiah currency format are allowed (eg. Rp1000, Rp1.000, Rp1.000,00 1.000, 1000, ect... )"`;

exports[`processInput  reject random placement of dot, comma, and invalid characters (Rp323d323) reject invalid input 1`] = `"There are invalid character in your input, only valid non-decimal number and rupiah currency format are allowed (eg. Rp1000, Rp1.000, Rp1.000,00 1.000, 1000, ect... )"`;

exports[`processInput  reject random placement of dot, comma, and invalid characters (Rpd2323) reject invalid input 1`] = `"There are invalid character in your input, only valid non-decimal number and rupiah currency format are allowed (eg. Rp1000, Rp1.000, Rp1.000,00 1.000, 1000, ect... )"`;

exports[`processInput  reject random placement of dot, comma, and invalid characters (fd0384) reject invalid input 1`] = `"There are invalid character in your input, only valid non-decimal number and rupiah currency format are allowed (eg. Rp1000, Rp1.000, Rp1.000,00 1.000, 1000, ect... )"`;

exports[`processInput  reject random placement of dot, comma, and invalid characters (g2939f) reject invalid input 1`] = `"There are invalid character in your input, only valid non-decimal number and rupiah currency format are allowed (eg. Rp1000, Rp1.000, Rp1.000,00 1.000, 1000, ect... )"`;

exports[`processInput reject "RP", "rp" and "Rp ", coz that's not how us literate patriotic indonesian denotes our currency (RP 1.000) reject invalid input 1`] = `"Wrong usage of currency symbol, correct usage is only \\"Rpxxxxx\\", do not use \\"rpxxxx\\", \\"RPxxxx\\", \\"Rp xxxx\\", \\"Rp.xxxxx\\", \\"rp xxxx\\", \\"xxxx Rp\\", etc.."`;

exports[`processInput reject "RP", "rp" and "Rp ", coz that's not how us literate patriotic indonesian denotes our currency (RP1000) reject invalid input 1`] = `"Wrong usage of currency symbol, correct usage is only \\"Rpxxxxx\\", do not use \\"rpxxxx\\", \\"RPxxxx\\", \\"Rp xxxx\\", \\"Rp.xxxxx\\", \\"rp xxxx\\", \\"xxxx Rp\\", etc.."`;

exports[`processInput reject "RP", "rp" and "Rp ", coz that's not how us literate patriotic indonesian denotes our currency (Rp 500) reject invalid input 1`] = `"Did you use space? Space is not allowed as separator, use dot for separator (eg. 1.000)"`;

exports[`processInput reject "RP", "rp" and "Rp ", coz that's not how us literate patriotic indonesian denotes our currency (rp 1000) reject invalid input 1`] = `"Wrong usage of currency symbol, correct usage is only \\"Rpxxxxx\\", do not use \\"rpxxxx\\", \\"RPxxxx\\", \\"Rp xxxx\\", \\"Rp.xxxxx\\", \\"rp xxxx\\", \\"xxxx Rp\\", etc.."`;

exports[`processInput reject "RP", "rp" and "Rp ", coz that's not how us literate patriotic indonesian denotes our currency (rp100) reject invalid input 1`] = `"Wrong usage of currency symbol, correct usage is only \\"Rpxxxxx\\", do not use \\"rpxxxx\\", \\"RPxxxx\\", \\"Rp xxxx\\", \\"Rp.xxxxx\\", \\"rp xxxx\\", \\"xxxx Rp\\", etc.."`;

exports[`processInput reject "Rp" in places other than the start of input (2Rp.000,00) reject invalid input 1`] = `"Wrong usage of currency symbol, correct usage is only \\"Rpxxxxx\\", do not use \\"rpxxxx\\", \\"RPxxxx\\", \\"Rp xxxx\\", \\"Rp.xxxxx\\", \\"rp xxxx\\", \\"xxxx Rp\\", etc.."`;

exports[`processInput reject "Rp" in places other than the start of input (2Rp000) reject invalid input 1`] = `"Wrong usage of currency symbol, correct usage is only \\"Rpxxxxx\\", do not use \\"rpxxxx\\", \\"RPxxxx\\", \\"Rp xxxx\\", \\"Rp.xxxxx\\", \\"rp xxxx\\", \\"xxxx Rp\\", etc.."`;

exports[`processInput reject "Rp" in places other than the start of input (200.000Rp) reject invalid input 1`] = `"Wrong usage of currency symbol, correct usage is only \\"Rpxxxxx\\", do not use \\"rpxxxx\\", \\"RPxxxx\\", \\"Rp xxxx\\", \\"Rp.xxxxx\\", \\"rp xxxx\\", \\"xxxx Rp\\", etc.."`;

exports[`processInput reject "Rp" in places other than the start of input (2000,00Rp) reject invalid input 1`] = `"Wrong usage of currency symbol, correct usage is only \\"Rpxxxxx\\", do not use \\"rpxxxx\\", \\"RPxxxx\\", \\"Rp xxxx\\", \\"Rp.xxxxx\\", \\"rp xxxx\\", \\"xxxx Rp\\", etc.."`;

exports[`processInput reject "Rp" in places other than the start of input (2000Rp) reject invalid input 1`] = `"Wrong usage of currency symbol, correct usage is only \\"Rpxxxxx\\", do not use \\"rpxxxx\\", \\"RPxxxx\\", \\"Rp xxxx\\", \\"Rp.xxxxx\\", \\"rp xxxx\\", \\"xxxx Rp\\", etc.."`;

exports[`processInput reject "Rp" without any number reject invalid input 1`] = `"You are not giving us any useful value to work with, try input some number (eg. Rp1.000, 1000, etc...)"`;

exports[`processInput reject spaces and comma as separator (1 000 000) reject invalid input 1`] = `"Did you use space? Space is not allowed as separator, use dot for separator (eg. 1.000)"`;

exports[`processInput reject spaces and comma as separator (1 000) reject invalid input 1`] = `"Did you use space? Space is not allowed as separator, use dot for separator (eg. 1.000)"`;

exports[`processInput reject spaces and comma as separator (1,000) reject invalid input 1`] = `"Wrong usage of comma, use only for decimal (eg. Rp100.000,00), do not use as separator."`;

exports[`processInput reject spaces and comma as separator (1,000,000) reject invalid input 1`] = `"Wrong usage of comma, use only for decimal (eg. Rp100.000,00), do not use as separator."`;
