// Jest Snapshot v1, https://goo.gl/fbAQLP

exports[`MainInput Component render correctly 1`] = `
.c0 {
  box-sizing: border-box;
  padding: 16px;
  padding-bottom: 0;
  width: 100%;
}

.c2 {
  box-sizing: border-box;
  padding: 16px;
  padding-left: 56px;
  font-size: 16px;
  paddling-left: 56px !important;
  border: none;
  outline: none;
  border-radius: 4px;
  color: white;
  width: 100%;
  box-shadow: 0 0 0 1px rgba(0,0,0,0.1),0 2px 4px rgba(0,0,0,0.1);
  background-color: #212121;
}

.c1 {
  box-sizing: border-box;
  margin: 0;
  padding: 16px;
  max-width: 100%;
  height: auto;
  position: absolute;
  stroke: white;
  opacity: 0.45;
  pointer-events: none;
}

<Component>
  <styled.div
    p={3}
    pb={0}
    width="100%"
  >
    <StyledComponent
      forwardedComponent={
        Object {
          "$$typeof": Symbol(react.forward_ref),
          "attrs": Array [],
          "componentStyle": ComponentStyle {
            "componentId": "sc-bdVaJa",
            "isStatic": false,
            "lastClassName": "c0",
            "rules": Array [
              "box-sizing: border-box;",
              [Function],
              [Function],
              [Function],
              [Function],
              [Function],
              [Function],
              [Function],
              [Function],
            ],
          },
          "displayName": "styled.div",
          "foldedComponentIds": Array [],
          "propTypes": Object {
            "alignSelf": [Function],
            "backgroundColor": [Function],
            "bg": [Function],
            "color": [Function],
            "flex": [Function],
            "fontSize": [Function],
            "m": [Function],
            "margin": [Function],
            "marginBottom": [Function],
            "marginLeft": [Function],
            "marginRight": [Function],
            "marginTop": [Function],
            "mb": [Function],
            "ml": [Function],
            "mr": [Function],
            "mt": [Function],
            "order": [Function],
            "p": [Function],
            "padding": [Function],
            "paddingBottom": [Function],
            "paddingLeft": [Function],
            "paddingRight": [Function],
            "paddingTop": [Function],
            "pb": [Function],
            "pl": [Function],
            "pr": [Function],
            "pt": [Function],
            "width": [Function],
          },
          "render": [Function],
          "styledComponentId": "sc-bdVaJa",
          "target": "div",
          "toString": [Function],
          "warnTooManyClasses": [Function],
          "withComponent": [Function],
        }
      }
      forwardedRef={null}
      p={3}
      pb={0}
      width="100%"
    >
      <div
        className="c0"
        width="100%"
      >
        <Styled(Styled(styled.div))
          _css={
            Object {
              "opacity": 0.45,
              "pointerEvents": "none",
              "position": "absolute",
              "stroke": "white",
            }
          }
          alt="edit icon"
          as="img"
          m={0}
          p={3}
          src={Object {}}
        >
          <StyledComponent
            _css={
              Object {
                "opacity": 0.45,
                "pointerEvents": "none",
                "position": "absolute",
                "stroke": "white",
              }
            }
            alt="edit icon"
            as="img"
            forwardedComponent={
              Object {
                "$$typeof": Symbol(react.forward_ref),
                "attrs": Array [],
                "componentStyle": ComponentStyle {
                  "componentId": "sc-htoDjs",
                  "isStatic": false,
                  "lastClassName": "c1",
                  "rules": Array [
                    "box-sizing: border-box;",
                    [Function],
                    [Function],
                    [Function],
                    [Function],
                    [Function],
                    [Function],
                    [Function],
                    [Function],
                    "max-width: 100%; height: auto;",
                    [Function],
                    [Function],
                    [Function],
                    [Function],
                  ],
                },
                "defaultProps": Object {
                  "as": "img",
                  "m": 0,
                },
                "displayName": "Styled(Styled(styled.div))",
                "foldedComponentIds": Array [
                  "sc-bdVaJa",
                  "sc-bZQynM",
                ],
                "propTypes": Object {
                  "borderRadius": [Function],
                  "height": [Function],
                },
                "render": [Function],
                "styledComponentId": "sc-htoDjs",
                "target": "div",
                "toString": [Function],
                "warnTooManyClasses": [Function],
                "withComponent": [Function],
              }
            }
            forwardedRef={null}
            m={0}
            p={3}
            src={Object {}}
          >
            <img
              alt="edit icon"
              className="c1"
              src={Object {}}
            />
          </StyledComponent>
        </Styled(Styled(styled.div))>
        <input__Input
          aria-label="main input"
          data-cy="main-input"
          pl="56px"
          placeholder="Type a value (eg. 100000)"
        >
          <StyledComponent
            aria-label="main input"
            data-cy="main-input"
            forwardedComponent={
              Object {
                "$$typeof": Symbol(react.forward_ref),
                "attrs": Array [
                  Object {
                    "as": "input",
                    "fontSize": 2,
                    "p": 3,
                  },
                ],
                "componentStyle": ComponentStyle {
                  "componentId": "input__Input-sc-1trm95e-0",
                  "isStatic": false,
                  "lastClassName": "c2",
                  "rules": Array [
                    "box-sizing: border-box;",
                    [Function],
                    [Function],
                    [Function],
                    [Function],
                    [Function],
                    [Function],
                    [Function],
                    [Function],
                    [Function],
                    " border:none;outline:none;border-radius:4px;color:white;width:100%;box-shadow:0 0 0 1px rgba(0,0,0,0.1),0 2px 4px rgba(0,0,0,0.1);background-color:#212121;",
                  ],
                },
                "displayName": "input__Input",
                "foldedComponentIds": Array [
                  "sc-bdVaJa",
                ],
                "propTypes": Object {
                  "alignSelf": [Function],
                  "backgroundColor": [Function],
                  "bg": [Function],
                  "color": [Function],
                  "flex": [Function],
                  "fontSize": [Function],
                  "m": [Function],
                  "margin": [Function],
                  "marginBottom": [Function],
                  "marginLeft": [Function],
                  "marginRight": [Function],
                  "marginTop": [Function],
                  "mb": [Function],
                  "ml": [Function],
                  "mr": [Function],
                  "mt": [Function],
                  "order": [Function],
                  "p": [Function],
                  "padding": [Function],
                  "paddingBottom": [Function],
                  "paddingLeft": [Function],
                  "paddingRight": [Function],
                  "paddingTop": [Function],
                  "pb": [Function],
                  "pl": [Function],
                  "pr": [Function],
                  "pt": [Function],
                  "width": [Function],
                },
                "render": [Function],
                "styledComponentId": "input__Input-sc-1trm95e-0",
                "target": "div",
                "toString": [Function],
                "warnTooManyClasses": [Function],
                "withComponent": [Function],
              }
            }
            forwardedRef={null}
            pl="56px"
            placeholder="Type a value (eg. 100000)"
          >
            <input
              aria-label="main input"
              className="c2"
              data-cy="main-input"
              fontSize={2}
              placeholder="Type a value (eg. 100000)"
            />
          </StyledComponent>
        </input__Input>
      </div>
    </StyledComponent>
  </styled.div>
</Component>
`;
